-a="F:\Unity homeworks\Homework 1 vuforia\Library\PlayerScriptAssemblies\Assembly-CSharp.dll"
-a="F:\Unity homeworks\Homework 1 vuforia\Library\PlayerScriptAssemblies\UnityEngine.TestRunner.dll"
-a="F:\Unity homeworks\Homework 1 vuforia\Library\PlayerScriptAssemblies\Unity.Timeline.dll"
-a="F:\Unity homeworks\Homework 1 vuforia\Library\PlayerScriptAssemblies\Unity.TextMeshPro.dll"
-a="F:\Unity homeworks\Homework 1 vuforia\Library\PlayerScriptAssemblies\UnityEngine.UI.dll"
-a="F:\Unity homeworks\Homework 1 vuforia\Library\PlayerScriptAssemblies\VuforiaScripts.dll"
-a="F:\Unity homeworks\Homework 1 vuforia\Library\PackageCache\com.ptc.vuforia.engine@f21b2e521015-1632536113000\Vuforia\Plugins\Managed\Lumin\Vuforia.Unity.Wrapper.dll"
-a="F:\Unity homeworks\Homework 1 vuforia\Library\PackageCache\com.ptc.vuforia.engine@f21b2e521015-1632536113000\Vuforia\Plugins\Managed\Runtime\Vuforia.Unity.Engine.dll"
-a="F:\Unity homeworks\Homework 1 vuforia\Library\PackageCache\com.ptc.vuforia.engine@f21b2e521015-1632536113000\Vuforia\Plugins\Managed\UWP\Vuforia.Unity.Wrapper.dll"
-a="F:\Unity homeworks\Homework 1 vuforia\Library\PackageCache\com.ptc.vuforia.engine@f21b2e521015-1632536113000\Vuforia\Plugins\Managed\Runtime\Vuforia.Unity.Wrapper.dll"
-a="F:\Unity homeworks\Homework 1 vuforia\Library\PackageCache\com.ptc.vuforia.engine@f21b2e521015-1632536113000\Vuforia\Plugins\Managed\iOS\Vuforia.Unity.Wrapper.dll"
-a="F:\Unity homeworks\Homework 1 vuforia\Library\PackageCache\com.ptc.vuforia.engine@f21b2e521015-1632536113000\Vuforia\Plugins\Managed\iOS\Vuforia.Unity.Engine.dll"
-a="F:\Unity homeworks\Homework 1 vuforia\Library\PackageCache\com.ptc.vuforia.engine@f21b2e521015-1632536113000\Vuforia\Plugins\Managed\UWP\Vuforia.Unity.Engine.dll"
-a="F:\Unity homeworks\Homework 1 vuforia\Library\PackageCache\com.ptc.vuforia.engine@f21b2e521015-1632536113000\Vuforia\Plugins\Managed\Android\Vuforia.Unity.Engine.dll"
-a="F:\Unity homeworks\Homework 1 vuforia\Library\PackageCache\com.ptc.vuforia.engine@f21b2e521015-1632536113000\Vuforia\Plugins\Managed\Lumin\Vuforia.Unity.Engine.dll"
-a="F:\Unity homeworks\Homework 1 vuforia\Library\PackageCache\com.unity.ext.nunit@1.0.6\net35\unity-custom\nunit.framework.dll"
-a="F:\Unity homeworks\Homework 1 vuforia\Library\PackageCache\com.ptc.vuforia.engine@f21b2e521015-1632536113000\Vuforia\Plugins\Managed\Android\Vuforia.Unity.Wrapper.dll"
-s="F:\Unity Editor\2020.3.19f1\Editor\Data\Managed\UnityEngine"
-s="F:\Unity homeworks\Homework 1 vuforia\Library\PlayerScriptAssemblies"
-s="F:\Unity homeworks\Homework 1 vuforia\Library\PackageCache\com.ptc.vuforia.engine@f21b2e521015-1632536113000\Vuforia\Plugins\Managed\Lumin"
-s="F:\Unity homeworks\Homework 1 vuforia\Library\PackageCache\com.ptc.vuforia.engine@f21b2e521015-1632536113000\Vuforia\Plugins\Managed\Runtime"
-s="F:\Unity homeworks\Homework 1 vuforia\Library\PackageCache\com.ptc.vuforia.engine@f21b2e521015-1632536113000\Vuforia\Plugins\Managed\UWP"
-s="F:\Unity homeworks\Homework 1 vuforia\Library\PackageCache\com.ptc.vuforia.engine@f21b2e521015-1632536113000\Vuforia\Plugins\Managed\iOS"
-s="F:\Unity homeworks\Homework 1 vuforia\Library\PackageCache\com.ptc.vuforia.engine@f21b2e521015-1632536113000\Vuforia\Plugins\Managed\Android"
-s="F:\Unity homeworks\Homework 1 vuforia\Library\PackageCache\com.unity.ext.nunit@1.0.6\net35\unity-custom"
-s="F:\Unity Editor\2020.3.19f1\Editor\Data\Managed\UnityEngine"
-s="F:\Unity Editor\2020.3.19f1\Editor\Data\NetStandard\ref\2.0.0"
-s="F:\Unity Editor\2020.3.19f1\Editor\Data\NetStandard\compat\2.0.0\shims\netstandard"
-s="F:\Unity Editor\2020.3.19f1\Editor\Data\NetStandard\Extensions\2.0.0"
-s="F:\Unity Editor\2020.3.19f1\Editor\Data\NetStandard\compat\2.0.0\shims\netfx"
-o="F:\Unity homeworks\Homework 1 vuforia\Library\BuildPlayerData\Player"
-rn="RuntimeInitializeOnLoads.json"
-tn="TypeDb-All.json"
