[api-updater (non-obsolete-error-filter)] 10/4/2021 6:02:02 PM : Starting F:/Unity Editor/2020.3.19f1/Editor/Data/Tools/ScriptUpdater/APIUpdater.NonObsoleteApiUpdaterDetector.exe
[api-updater (non-obsolete-error-filter)] 
----------------------------------
jit/startup time      : 518.2945ms
moved types parse time: 38ms
candidates parse time : 0ms
C# parse time         : 419ms
candidates check time : 22ms
console write time    : 0ms

