[api-updater (non-obsolete-error-filter)] 10/12/2021 6:56:24 PM : Starting F:/Unity Editor/2020.3.19f1/Editor/Data/Tools/ScriptUpdater/APIUpdater.NonObsoleteApiUpdaterDetector.exe
[api-updater (non-obsolete-error-filter)] 
----------------------------------
jit/startup time      : 520.4301ms
moved types parse time: 37ms
candidates parse time : 0ms
C# parse time         : 388ms
candidates check time : 21ms
console write time    : 0ms

[api-updater (non-obsolete-error-filter)] 10/12/2021 6:56:35 PM : Starting F:/Unity Editor/2020.3.19f1/Editor/Data/Tools/ScriptUpdater/APIUpdater.NonObsoleteApiUpdaterDetector.exe
[api-updater (non-obsolete-error-filter)] 
----------------------------------
jit/startup time      : 42.0376ms
moved types parse time: 33ms
candidates parse time : 0ms
C# parse time         : 115ms
candidates check time : 19ms
console write time    : 0ms

[api-updater (non-obsolete-error-filter)] 10/12/2021 6:57:27 PM : Starting F:/Unity Editor/2020.3.19f1/Editor/Data/Tools/ScriptUpdater/APIUpdater.NonObsoleteApiUpdaterDetector.exe
[api-updater (non-obsolete-error-filter)] 
----------------------------------
jit/startup time      : 43.0383ms
moved types parse time: 33ms
candidates parse time : 0ms
C# parse time         : 114ms
candidates check time : 17ms
console write time    : 0ms

[api-updater (non-obsolete-error-filter)] 10/12/2021 7:23:42 PM : Starting F:/Unity Editor/2020.3.19f1/Editor/Data/Tools/ScriptUpdater/APIUpdater.NonObsoleteApiUpdaterDetector.exe
[api-updater (non-obsolete-error-filter)] 
----------------------------------
jit/startup time      : 44.0388ms
moved types parse time: 33ms
candidates parse time : 0ms
C# parse time         : 117ms
candidates check time : 19ms
console write time    : 0ms

